{
  "__type__": "cc.TextAsset",
  "_name": "export_char.atlas",
  "_objFlags": 0,
  "_native": "",
  "text": "\nexport_char.png\nsize: 1004,976\nformat: RGBA8888\nfilter: Linear,Linear\nrepeat: none\nbanchan1\n  rotate: false\n  xy: 257, 931\n  size: 85, 40\n  orig: 88, 42\n  offset: 2, 1\n  index: -1\nbanchan2\n  rotate: false\n  xy: 171, 932\n  size: 84, 39\n  orig: 86, 41\n  offset: 1, 1\n  index: -1\nbantay1\n  rotate: false\n  xy: 208, 865\n  size: 67, 64\n  orig: 69, 66\n  offset: 1, 1\n  index: -1\nbantay2\n  rotate: true\n  xy: 277, 861\n  size: 67, 68\n  orig: 69, 71\n  offset: 1, 1\n  index: -1\nbantay3\n  rotate: true\n  xy: 77, 792\n  size: 77, 86\n  orig: 78, 88\n  offset: 0, 1\n  index: -1\nbody\n  rotate: true\n  xy: 479, 556\n  size: 104, 162\n  orig: 104, 172\n  offset: 0, 9\n  index: -1\nbody - Copy\n  rotate: true\n  xy: 315, 573\n  size: 103, 162\n  orig: 104, 172\n  offset: 0, 10\n  index: -1\nbody2\n  rotate: true\n  xy: 164, 586\n  size: 105, 149\n  orig: 105, 149\n  offset: 0, 0\n  index: -1\ncamxuc\n  rotate: false\n  xy: 739, 661\n  size: 100, 99\n  orig: 100, 100\n  offset: 0, 0\n  index: -1\ncamxuc2\n  rotate: false\n  xy: 438, 678\n  size: 98, 98\n  orig: 98, 98\n  offset: 0, 0\n  index: -1\ncamxuc3\n  rotate: false\n  xy: 538, 678\n  size: 98, 98\n  orig: 98, 98\n  offset: 0, 0\n  index: -1\ncamxuc4\n  rotate: false\n  xy: 638, 662\n  size: 99, 98\n  orig: 99, 98\n  offset: 0, 0\n  index: -1\ncangchan1\n  rotate: true\n  xy: 320, 688\n  size: 90, 116\n  orig: 92, 118\n  offset: 1, 1\n  index: -1\ncangchan2\n  rotate: true\n  xy: 198, 693\n  size: 85, 120\n  orig: 87, 135\n  offset: 1, 2\n  index: -1\ncangtay1\n  rotate: true\n  xy: 902, 761\n  size: 78, 98\n  orig: 81, 99\n  offset: 3, 1\n  index: -1\ncangtay1_1\n  rotate: true\n  xy: 100, 703\n  size: 81, 96\n  orig: 81, 99\n  offset: 0, 3\n  index: -1\ncangtay2\n  rotate: true\n  xy: 165, 786\n  size: 77, 83\n  orig: 80, 96\n  offset: 1, 11\n  index: -1\ncanhtay1\n  rotate: true\n  xy: 704, 762\n  size: 77, 98\n  orig: 80, 100\n  offset: 2, 1\n  index: -1\ncanhtay2\n  rotate: true\n  xy: 59, 939\n  size: 32, 67\n  orig: 34, 69\n  offset: 1, 1\n  index: -1\ndau\n  rotate: true\n  xy: 2, 418\n  size: 166, 189\n  orig: 166, 189\n  offset: 0, 0\n  index: -1\ndau3\n  rotate: true\n  xy: 2, 418\n  size: 166, 189\n  orig: 166, 189\n  offset: 0, 0\n  index: -1\ndau2\n  rotate: false\n  xy: 193, 388\n  size: 212, 183\n  orig: 212, 183\n  offset: 0, 0\n  index: -1\ndui\n  rotate: true\n  xy: 2, 878\n  size: 59, 99\n  orig: 61, 101\n  offset: 1, 1\n  index: -1\nef_slash/atk1_3\n  rotate: true\n  xy: 399, 2\n  size: 329, 389\n  orig: 434, 401\n  offset: 101, 9\n  index: -1\nef_slash/atk1_4\n  rotate: true\n  xy: 2, 117\n  size: 269, 395\n  orig: 382, 402\n  offset: 113, 6\n  index: -1\nef_slash/atk1_5\n  rotate: true\n  xy: 407, 333\n  size: 196, 383\n  orig: 346, 404\n  offset: 142, 11\n  index: -1\nef_slash/atk1_6\n  rotate: true\n  xy: 643, 531\n  size: 124, 355\n  orig: 299, 392\n  offset: 155, 18\n  index: -1\ngui2\n  rotate: true\n  xy: 347, 856\n  size: 72, 90\n  orig: 74, 92\n  offset: 1, 1\n  index: -1\nhong\n  rotate: false\n  xy: 517, 918\n  size: 92, 53\n  orig: 92, 53\n  offset: 0, 0\n  index: -1\nskin2/bodyv2\n  rotate: true\n  xy: 841, 657\n  size: 102, 160\n  orig: 102, 170\n  offset: 0, 9\n  index: -1\nskin2/giaptai\n  rotate: true\n  xy: 2, 804\n  size: 72, 73\n  orig: 72, 73\n  offset: 0, 0\n  index: -1\nskin2/giapvai\n  rotate: true\n  xy: 460, 919\n  size: 52, 55\n  orig: 52, 55\n  offset: 0, 0\n  index: -1\nskin2/vukhi2\n  rotate: true\n  xy: 611, 914\n  size: 57, 280\n  orig: 57, 280\n  offset: 0, 0\n  index: -1\nskin3/bodyv3\n  rotate: true\n  xy: 2, 599\n  size: 102, 160\n  orig: 102, 170\n  offset: 0, 9\n  index: -1\nskin3/giapbaptay\n  rotate: true\n  xy: 804, 762\n  size: 77, 96\n  orig: 80, 97\n  offset: 3, 1\n  index: -1\nskin3/giapbaptay2\n  rotate: true\n  xy: 2, 710\n  size: 80, 96\n  orig: 80, 97\n  offset: 0, 1\n  index: -1\nskin3/giapchan1\n  rotate: true\n  xy: 103, 871\n  size: 59, 103\n  orig: 59, 103\n  offset: 0, 0\n  index: -1\nskin3/giapchan2\n  rotate: true\n  xy: 893, 913\n  size: 58, 105\n  orig: 58, 105\n  offset: 0, 0\n  index: -1\nskin3/giaptai2\n  rotate: true\n  xy: 2, 942\n  size: 29, 55\n  orig: 29, 55\n  offset: 0, 0\n  index: -1\nskin3/giapvai2\n  rotate: false\n  xy: 128, 933\n  size: 41, 38\n  orig: 41, 38\n  offset: 0, 0\n  index: -1\nskin3/kinh\n  rotate: false\n  xy: 344, 930\n  size: 114, 41\n  orig: 114, 41\n  offset: 0, 0\n  index: -1\nskin3/vukhi3\n  rotate: true\n  xy: 721, 841\n  size: 70, 280\n  orig: 70, 280\n  offset: 0, 0\n  index: -1\ntoc\n  rotate: true\n  xy: 250, 780\n  size: 73, 284\n  orig: 73, 284\n  offset: 0, 0\n  index: -1\ntoc1\n  rotate: true\n  xy: 536, 778\n  size: 75, 166\n  orig: 75, 167\n  offset: 0, 0\n  index: -1\nvukhi\n  rotate: true\n  xy: 439, 855\n  size: 57, 280\n  orig: 59, 282\n  offset: 1, 1\n  index: -1\n\nexport_char2.png\nsize: 844,380\nformat: RGBA8888\nfilter: Linear,Linear\nrepeat: none\nef_slash/atk1_1\n  rotate: false\n  xy: 2, 29\n  size: 457, 349\n  orig: 462, 357\n  offset: 3, 5\n  index: -1\nef_slash/atk1_2\n  rotate: true\n  xy: 461, 2\n  size: 376, 381\n  orig: 436, 392\n  offset: 56, 7\n  index: -1\n"
}