{
  "__type__": "cc.TextAsset",
  "_name": "export_char.atlas",
  "_objFlags": 0,
  "_native": "",
  "text": "\nexport_char.png\nsize: 1020,956\nformat: RGBA8888\nfilter: Linear,Linear\nrepeat: none\nbanchan1\n  rotate: false\n  xy: 41, 915\n  size: 79, 36\n  orig: 81, 38\n  offset: 1, 1\n  index: -1\nbanchan2\n  rotate: false\n  xy: 122, 915\n  size: 74, 36\n  orig: 76, 39\n  offset: 1, 1\n  index: -1\nbantay1\n  rotate: false\n  xy: 508, 782\n  size: 103, 100\n  orig: 107, 102\n  offset: 1, 0\n  index: -1\nbantay2\n  rotate: false\n  xy: 639, 877\n  size: 79, 74\n  orig: 83, 83\n  offset: 1, 3\n  index: -1\nbody\n  rotate: true\n  xy: 350, 501\n  size: 163, 174\n  orig: 163, 177\n  offset: 0, 3\n  index: -1\nbody2\n  rotate: true\n  xy: 835, 601\n  size: 161, 174\n  orig: 163, 177\n  offset: 2, 3\n  index: -1\ncamxuc\n  rotate: true\n  xy: 135, 705\n  size: 111, 131\n  orig: 113, 133\n  offset: 1, 1\n  index: -1\ncamxuc1\n  rotate: true\n  xy: 827, 764\n  size: 106, 120\n  orig: 106, 120\n  offset: 0, 0\n  index: -1\ncamxuc3\n  rotate: true\n  xy: 268, 696\n  size: 111, 131\n  orig: 111, 131\n  offset: 0, 0\n  index: -1\ncamxuc4\n  rotate: true\n  xy: 2, 712\n  size: 106, 131\n  orig: 111, 131\n  offset: 2, 0\n  index: -1\ncangchan1\n  rotate: true\n  xy: 720, 874\n  size: 77, 98\n  orig: 83, 100\n  offset: 1, 1\n  index: -1\ncangchan2\n  rotate: true\n  xy: 438, 892\n  size: 59, 98\n  orig: 61, 107\n  offset: 1, 8\n  index: -1\ncangtay1\n  rotate: true\n  xy: 720, 769\n  size: 103, 105\n  orig: 103, 126\n  offset: 0, 0\n  index: -1\ncangtay1 - Copy\n  rotate: true\n  xy: 613, 774\n  size: 101, 105\n  orig: 103, 126\n  offset: 1, 1\n  index: -1\ncangtay2\n  rotate: true\n  xy: 105, 820\n  size: 93, 91\n  orig: 95, 93\n  offset: 1, 1\n  index: -1\ncanhtay1\n  rotate: true\n  xy: 539, 647\n  size: 125, 146\n  orig: 127, 147\n  offset: 1, 0\n  index: -1\ncanhtay1 - Copy\n  rotate: true\n  xy: 687, 635\n  size: 127, 146\n  orig: 127, 147\n  offset: 0, 1\n  index: -1\ncanhtay2\n  rotate: true\n  xy: 299, 809\n  size: 85, 102\n  orig: 87, 104\n  offset: 1, 1\n  index: -1\ndailung\n  rotate: false\n  xy: 198, 902\n  size: 132, 49\n  orig: 132, 49\n  offset: 0, 0\n  index: -1\ndau\n  rotate: true\n  xy: 2, 342\n  size: 189, 227\n  orig: 191, 229\n  offset: 1, 1\n  index: -1\ndau2\n  rotate: true\n  xy: 723, 414\n  size: 185, 210\n  orig: 189, 210\n  offset: 4, 0\n  index: -1\ndui1\n  rotate: true\n  xy: 2, 832\n  size: 81, 101\n  orig: 83, 103\n  offset: 1, 1\n  index: -1\ndui2\n  rotate: false\n  xy: 198, 818\n  size: 99, 82\n  orig: 101, 84\n  offset: 1, 1\n  index: -1\nef/chem1\n  rotate: false\n  xy: 231, 268\n  size: 279, 231\n  orig: 755, 782\n  offset: 232, 239\n  index: -1\nef/chem8\n  rotate: false\n  xy: 512, 218\n  size: 367, 194\n  orig: 755, 782\n  offset: 276, 165\n  index: -1\nef/pp6\n  rotate: false\n  xy: 526, 460\n  size: 195, 173\n  orig: 203, 179\n  offset: 5, 4\n  index: -1\nhong\n  rotate: false\n  xy: 332, 896\n  size: 104, 55\n  orig: 107, 57\n  offset: 1, 1\n  index: -1\nskin1/baptay1\n  rotate: true\n  xy: 401, 666\n  size: 114, 136\n  orig: 114, 136\n  offset: 0, 0\n  index: -1\nskin1/baptay1_2\n  rotate: true\n  xy: 401, 666\n  size: 114, 136\n  orig: 114, 136\n  offset: 0, 0\n  index: -1\nskin1/baptay2\n  rotate: true\n  xy: 820, 874\n  size: 77, 86\n  orig: 78, 86\n  offset: 0, 0\n  index: -1\nskin1/bodyv1\n  rotate: true\n  xy: 2, 542\n  size: 161, 172\n  orig: 161, 175\n  offset: 0, 3\n  index: -1\nskin1/vukhiv1\n  rotate: true\n  xy: 2, 52\n  size: 214, 507\n  orig: 214, 507\n  offset: 0, 0\n  index: -1\nskin3/bodyv3\n  rotate: true\n  xy: 176, 533\n  size: 161, 172\n  orig: 161, 175\n  offset: 0, 3\n  index: -1\nskin3/giapchan1\n  rotate: true\n  xy: 908, 872\n  size: 79, 92\n  orig: 79, 92\n  offset: 0, 0\n  index: -1\nskin3/giapchan2\n  rotate: true\n  xy: 538, 884\n  size: 67, 99\n  orig: 67, 99\n  offset: 0, 0\n  index: -1\nskin3/mat\n  rotate: false\n  xy: 2, 926\n  size: 37, 25\n  orig: 37, 25\n  offset: 0, 0\n  index: -1\nskin3/matlaze\n  rotate: true\n  xy: 403, 800\n  size: 90, 103\n  orig: 90, 103\n  offset: 0, 0\n  index: -1\nvukhi\n  rotate: true\n  xy: 511, 2\n  size: 214, 507\n  orig: 214, 507\n  offset: 0, 0\n  index: -1\n\nexport_char2.png\nsize: 960,1012\nformat: RGBA8888\nfilter: Linear,Linear\nrepeat: none\nef/chem3\n  rotate: false\n  xy: 2, 248\n  size: 688, 760\n  orig: 755, 782\n  offset: 20, 21\n  index: -1\nef/pp1\n  rotate: false\n  xy: 692, 303\n  size: 257, 351\n  orig: 266, 360\n  offset: 3, 4\n  index: -1\nef/pp2\n  rotate: false\n  xy: 692, 656\n  size: 264, 352\n  orig: 270, 360\n  offset: 3, 5\n  index: -1\nef/pp4\n  rotate: true\n  xy: 511, 2\n  size: 244, 288\n  orig: 248, 294\n  offset: 2, 4\n  index: -1\nvukhi3\n  rotate: true\n  xy: 2, 32\n  size: 214, 507\n  orig: 214, 507\n  offset: 0, 0\n  index: -1\n\nexport_char3.png\nsize: 940,764\nformat: RGBA8888\nfilter: Linear,Linear\nrepeat: none\nef/chem2\n  rotate: true\n  xy: 2, 105\n  size: 390, 457\n  orig: 755, 782\n  offset: 167, 189\n  index: -1\nef/chem6\n  rotate: true\n  xy: 461, 2\n  size: 424, 442\n  orig: 755, 782\n  offset: 198, 127\n  index: -1\nef/chem7\n  rotate: true\n  xy: 580, 428\n  size: 333, 355\n  orig: 755, 782\n  offset: 273, 131\n  index: -1\nef/pp3\n  rotate: true\n  xy: 268, 497\n  size: 264, 310\n  orig: 270, 319\n  offset: 3, 6\n  index: -1\nef/pp5\n  rotate: true\n  xy: 2, 522\n  size: 239, 264\n  orig: 244, 269\n  offset: 3, 3\n  index: -1\n\nexport_char4.png\nsize: 1016,568\nformat: RGBA8888\nfilter: Linear,Linear\nrepeat: none\nef/chem4\n  rotate: true\n  xy: 2, 2\n  size: 564, 555\n  orig: 755, 782\n  offset: 31, 181\n  index: -1\nef/chem5\n  rotate: false\n  xy: 559, 97\n  size: 452, 469\n  orig: 755, 782\n  offset: 160, 142\n  index: -1\n"
}